/* XPM */
static char * fill_b1_xpm[] = {
"16 17 3 1",
" 	c #E79DE79DE79D",
".	c #000000000000",
"X	c #FFFFFFFFFFFF",
"                ",
"                ",
"      ....      ",
"    ..XXXX..    ",
"   .XXXXXXXX.   ",
"   .XXXXXXXX.   ",
"  .XXXXXXXXXX.  ",
"  .XXXXXXXXXX.  ",
"  .XXXXXXXXXX.  ",
"  .XXXXXXXXXX.  ",
"   .XXXXXXXX.   ",
"   .XXXXXXXX.   ",
"    ..XXXX..    ",
"      ....      ",
"                ",
"                ",
"                "};
